singlecycle.vcd
$date
	Thu Apr  3 19:00:43 2025
$end
$version
	Icarus Verilog
$end
$timescale
	1ps
$end
$scope module SingleCycleProcTest_v $end
$var wire 64 ! currentPC [63:0] $end
$var wire 64 " MemtoRegOut [63:0] $end
$var reg 1 # CLK $end
$var reg 1 $ Reset_L $end
$var reg 8 % passed [7:0] $end
$var reg 64 & startPC [63:0] $end
$var reg 16 ' watchdog [15:0] $end
$scope module uut $end
$var wire 1 # CLK $end
$var wire 1 $ resetl $end
$var wire 64 ( startpc [63:0] $end
$var wire 1 ) zero $end
$var wire 1 * uncond_branch $end
$var wire 3 + signop [2:0] $end
$var wire 5 , rn [4:0] $end
$var wire 5 - rm [4:0] $end
$var wire 1 . regwrite $end
$var wire 64 / regoutB [63:0] $end
$var wire 64 0 regoutA [63:0] $end
$var wire 1 1 reg2loc $end
$var wire 5 2 rd [4:0] $end
$var wire 11 3 opcode [10:0] $end
$var wire 64 4 nextpc [63:0] $end
$var wire 1 5 memwrite $end
$var wire 1 6 memread $end
$var wire 1 7 mem2reg $end
$var wire 32 8 instruction [31:0] $end
$var wire 26 9 imm [25:0] $end
$var wire 64 : extimm [63:0] $end
$var wire 1 ; branch $end
$var wire 64 < alusrcout [63:0] $end
$var wire 1 = alusrc $end
$var wire 64 > aluout [63:0] $end
$var wire 4 ? aluctrl [3:0] $end
$var wire 64 @ ReadData [63:0] $end
$var wire 64 A MemtoRegOut [63:0] $end
$var reg 64 B currentpc [63:0] $end
$scope module ALU $end
$var wire 64 C BusB [63:0] $end
$var wire 1 ) Zero $end
$var wire 64 D BusA [63:0] $end
$var wire 4 E ALUCtrl [3:0] $end
$var reg 64 F BusW [63:0] $end
$upscope $end
$scope module DataMemory $end
$var wire 64 G Address [63:0] $end
$var wire 1 # Clock $end
$var wire 64 H WriteData [63:0] $end
$var wire 1 5 MemoryWrite $end
$var wire 1 6 MemoryRead $end
$var reg 64 I ReadData [63:0] $end
$scope task initset $end
$var reg 64 J addr [63:0] $end
$var reg 64 K data [63:0] $end
$upscope $end
$upscope $end
$scope module NextPClogic $end
$var wire 1 ) ALUZero $end
$var wire 64 L CurrentPC [63:0] $end
$var wire 64 M offset [63:0] $end
$var wire 1 * Uncondbranch $end
$var wire 64 N SignExtImm64 [63:0] $end
$var wire 1 ; Branch $end
$var reg 64 O NextPC [63:0] $end
$upscope $end
$scope module SignExtender $end
$var wire 26 P Imm [25:0] $end
$var wire 3 Q Ctrl [2:0] $end
$var wire 64 R BusImm [63:0] $end
$upscope $end
$scope module control $end
$var wire 11 S opcode [10:0] $end
$var reg 4 T aluop [3:0] $end
$var reg 1 = alusrc $end
$var reg 1 ; branch $end
$var reg 1 7 mem2reg $end
$var reg 1 6 memread $end
$var reg 1 5 memwrite $end
$var reg 1 1 reg2loc $end
$var reg 1 . regwrite $end
$var reg 3 U signop [2:0] $end
$var reg 1 * uncond_branch $end
$upscope $end
$scope module imem $end
$var wire 64 V Address [63:0] $end
$var parameter 32 W MemSize $end
$var parameter 32 X T_rd $end
$var reg 32 Y Data [31:0] $end
$upscope $end
$scope module regfile $end
$var wire 64 Z BusA [63:0] $end
$var wire 64 [ BusB [63:0] $end
$var wire 64 \ BusW [63:0] $end
$var wire 1 # Clk $end
$var wire 5 ] RA [4:0] $end
$var wire 5 ^ RB [4:0] $end
$var wire 5 _ RW [4:0] $end
$var wire 1 . RegWr $end
$upscope $end
$upscope $end
$scope task allPassed $end
$var reg 8 ` numTests [7:0] $end
$var reg 8 a passed [7:0] $end
$upscope $end
$scope task passTest $end
$var reg 64 b actualOut [63:0] $end
$var reg 64 c expectedOut [63:0] $end
$var reg 8 d passed [7:0] $end
$var reg 257 e testType [256:0] $end
$upscope $end
$upscope $end
$enddefinitions $end
$comment Show the parameter values. $end
$dumpall
b10100 X
b101000 W
$end
#0
$dumpvars
bx e
bx d
bx c
bx b
bx a
bx `
bx _
bx ^
bx ]
bx \
bx [
bx Z
bx Y
bx V
bx U
bx T
bx S
bx R
bx Q
bx P
bx O
bx N
bx00 M
bx L
b0 K
b100000 J
bx I
bx H
bx G
bx F
bx E
bx D
bx C
bx B
bx A
bx @
bx ?
bx >
x=
bx <
x;
bx :
bx 9
bx 8
x7
x6
x5
bx 4
bx 3
bx 2
x1
bx 0
bx /
x.
bx -
bx ,
bx +
x*
x)
b0 (
b0 '
b0 &
b0 %
1$
0#
bx "
bx !
$end
#60000
1#
#120000
b1 '
0#
#121000
0$
#180000
1#
#240000
b10 '
0#
#243000
b0 M
b0 <
b0 C
b0 :
b0 N
b0 R
b1 +
b1 Q
b1 U
b10 ?
b10 E
b10 T
1.
1=
05
17
16
0;
0*
b0x00x ,
b0x00x ^
b10000000000001111101001 9
b10000000000001111101001 P
b11111000010 3
b11111000010 S
b11111 -
b11111 ]
b1001 2
b1001 _
b100 4
b100 O
b11111000010000000000001111101001 8
b11111000010000000000001111101001 Y
b0 !
b0 B
b0 L
b0 V
#245000
1)
b0 >
b0 F
b0 G
b0 0
b0 D
b0 Z
#300000
b1 "
b1 A
b1 \
b1 @
b1 I
1$
1#
#360000
b11 '
0#
#363000
b100000 M
0)
b1000 >
b1000 F
b1000 G
b1000 <
b1000 C
b1000 :
b1000 N
b1000 R
b0x0x0 ,
b0x0x0 ^
b10000001000001111101010 9
b10000001000001111101010 P
b1010 2
b1010 _
b1000 4
b1000 O
b11111000010000001000001111101010 8
b11111000010000001000001111101010 Y
b100 !
b100 B
b100 L
b100 V
#420000
b1010 "
b1010 A
b1010 \
b1010 @
b1010 I
1#
#480000
b100 '
0#
#483000
b1000000 M
b10000 >
b10000 F
b10000 G
b10000 <
b10000 C
b10000 :
b10000 N
b10000 R
b0x0x1 ,
b0x0x1 ^
b10000010000001111101011 9
b10000010000001111101011 P
b1011 2
b1011 _
b1100 4
b1100 O
b11111000010000010000001111101011 8
b11111000010000010000001111101011 Y
b1000 !
b1000 B
b1000 L
b1000 V
#540000
b101 "
b101 A
b101 \
b101 @
b101 I
1#
#600000
b101 '
0#
#603000
b1100000 M
b11000 >
b11000 F
b11000 G
b11000 <
b11000 C
b11000 :
b11000 N
b11000 R
b0xx0x ,
b0xx0x ^
b10000011000001111101100 9
b10000011000001111101100 P
b1100 2
b1100 _
b10000 4
b10000 O
b11111000010000011000001111101100 8
b11111000010000011000001111101100 Y
b1100 !
b1100 B
b1100 L
b1100 V
#660000
b111111111011111010100111110111101010110110111110111011111111 "
b111111111011111010100111110111101010110110111110111011111111 A
b111111111011111010100111110111101010110110111110111011111111 \
b111111111011111010100111110111101010110110111110111011111111 @
b111111111011111010100111110111101010110110111110111011111111 I
1#
#720000
b110 '
0#
#723000
b10000000 M
b100000 >
b100000 F
b100000 G
b100000 <
b100000 C
b100000 :
b100000 N
b100000 R
b0xxxx ,
b0xxxx ^
b10000100000001111101101 9
b10000100000001111101101 P
b1101 2
b1101 _
b10100 4
b10100 O
b11111000010000100000001111101101 8
b11111000010000100000001111101101 Y
b10000 !
b10000 B
b10000 L
b10000 V
#780000
b0 "
b0 A
b0 \
b0 @
b0 I
1#
#840000
b111 '
0#
#843000
bx00000x0xx0x0xx0xxxxxxx0x000 M
bx00000x0xx0x0xx0xxxxxxx0x0 :
bx00000x0xx0x0xx0xxxxxxx0x0 N
bx00000x0xx0x0xx0xxxxxxx0x0 R
x)
bx >
bx F
bx G
bx <
bx C
bx "
bx A
bx \
bx +
bx Q
bx U
b1 ?
b1 E
b1 T
0=
07
06
01
b1011 ,
b1011 ^
b10000010110000000101001010 9
b10000010110000000101001010 P
b10101010000 3
b10101010000 S
b1010 -
b1010 ]
b1010 2
b1010 _
b11000 4
b11000 O
b10101010000010110000000101001010 8
b10101010000010110000000101001010 Y
b10100 !
b10100 B
b10100 L
b10100 V
#845000
b1111 "
b1111 A
b1111 \
b101 <
b101 C
0)
b1111 >
b1111 F
b1111 G
b101 /
b101 H
b101 [
b1010 0
b1010 D
b1010 Z
#900000
1#
#960000
b1000 '
0#
#963000
bx00000x0x00x0x00xxx0x0xx0000 M
bx00000x0x00x0x00xxx0x0xx00 :
bx00000x0x00x0x00xxx0x0xx00 N
bx00000x0x00x0x00xxx0x0xx00 R
b0 "
b0 A
b0 \
1)
b0 >
b0 F
b0 G
b0 ?
b0 E
b0 T
b1010 ,
b1010 ^
b10000010100000000110001100 9
b10000010100000000110001100 P
b10001010000 3
b10001010000 S
b1100 -
b1100 ]
b1100 2
b1100 _
b11100 4
b11100 O
b10001010000010100000000110001100 8
b10001010000010100000000110001100 Y
b11000 !
b11000 B
b11000 L
b11000 V
#965000
b1111 "
b1111 A
b1111 \
b1111 <
b1111 C
0)
b1111 >
b1111 F
b1111 G
b1111 /
b1111 H
b1111 [
b111111111011111010100111110111101010110110111110111011111111 0
b111111111011111010100111110111101010110110111110111011111111 D
b111111111011111010100111110111101010110110111110111011111111 Z
#1020000
1#
#1080000
b1001 '
0#
#1083000
b10000 M
b100 :
b100 N
b100 R
b0xxxx "
b0xxxx A
b0xxxx \
b10 +
b10 Q
b10 U
b111 ?
b111 E
b111 T
0.
x7
1;
11
b1100 ,
b1100 ^
b10001100 9
b10001100 P
b10110100000 3
b10110100000 S
b100 -
b100 ]
b100000 4
b100000 O
b10110100000000000000000010001100 8
b10110100000000000000000010001100 Y
b11100 !
b11100 B
b11100 L
b11100 V
#1085000
bx 0
bx D
bx Z
#1140000
1#
#1200000
b1010 '
0#
#1203000
bx0000x00x0x00x0xxxxxxxx0x00 M
bx0000x00x0x00x0xxxxxxxx0x :
bx0000x00x0x00x0xxxxxxxx0x N
bx0000x00x0x00x0xxxxxxxx0x R
x)
bx >
bx F
bx G
bx "
bx A
bx \
bx +
bx Q
bx U
b10 ?
b10 E
b10 T
1.
07
0;
01
b1001 ,
b1001 ^
b11000010010000000110101101 9
b11000010010000000110101101 P
b10001011000 3
b10001011000 S
b1101 -
b1101 ]
b1101 2
b1101 _
b100100 4
b100100 O
b10001011000010010000000110101101 8
b10001011000010010000000110101101 Y
b100000 !
b100000 B
b100000 L
b100000 V
#1205000
b1 "
b1 A
b1 \
b1 <
b1 C
0)
b1 >
b1 F
b1 G
b1 /
b1 H
b1 [
b0 0
b0 D
b0 Z
#1260000
1#
#1320000
b1011 '
0#
#1323000
bx0000x00x0x00x0xxxx0xxx0000 M
bx0000x00x0x00x0xxxx0xxx00 :
bx0000x00x0x00x0xxxx0xxx00 N
bx0000x00x0x00x0xxxx0xxx00 R
b1111111111111111111111111111111111111111111111111111111111111111 "
b1111111111111111111111111111111111111111111111111111111111111111 A
b1111111111111111111111111111111111111111111111111111111111111111 \
b1111111111111111111111111111111111111111111111111111111111111111 >
b1111111111111111111111111111111111111111111111111111111111111111 F
b1111111111111111111111111111111111111111111111111111111111111111 G
b110 ?
b110 E
b110 T
b11000010010000000110001100 9
b11000010010000000110001100 P
b11001011000 3
b11001011000 S
b1100 -
b1100 ]
b1100 2
b1100 _
b101000 4
b101000 O
b11001011000010010000000110001100 8
b11001011000010010000000110001100 Y
b100100 !
b100100 B
b100100 L
b100100 V
#1325000
b1110 "
b1110 A
b1110 \
b1110 >
b1110 F
b1110 G
b1111 0
b1111 D
b1111 Z
#1380000
1#
#1440000
b1100 '
0#
#1443000
b1111111111111111111111111111111111111111111111111111111111110100 M
b1111111111111111111111111111111111111111111111111111111111111101 :
b1111111111111111111111111111111111111111111111111111111111111101 N
b1111111111111111111111111111111111111111111111111111111111111101 R
bx01 <
bx01 C
b0xxx0 "
b0xxx0 A
b0xxx0 \
b11 +
b11 Q
b11 U
bx ?
bx E
bx T
0.
x=
x7
x;
1*
x1
b111x1 ,
b111x1 ^
b11111111111111111111111101 9
b11111111111111111111111101 P
b10111111 3
b10111111 S
b11111 -
b11111 ]
b11101 2
b11101 _
b11100 4
b11100 O
b10111111111111111111111111101 8
b10111111111111111111111111101 Y
b101000 !
b101000 B
b101000 L
b101000 V
#1445000
bx <
bx C
bx /
bx H
bx [
b0 0
b0 D
b0 Z
#1500000
1#
#1560000
b1101 '
0#
#1563000
b10000 M
b100 :
b100 N
b100 R
bx "
bx A
bx \
x)
bx >
bx F
bx G
b10 +
b10 Q
b10 U
b111 ?
b111 E
b111 T
0=
1;
0*
11
b1100 ,
b1100 ^
b10001100 9
b10001100 P
b10110100000 3
b10110100000 S
b100 -
b100 ]
b1100 2
b1100 _
b100000 4
b100000 O
b10110100000000000000000010001100 8
b10110100000000000000000010001100 Y
b11100 !
b11100 B
b11100 L
b11100 V
#1565000
b0xxx0 "
b0xxx0 A
b0xxx0 \
0)
b1110 >
b1110 F
b1110 G
b1110 <
b1110 C
b1110 /
b1110 H
b1110 [
bx 0
bx D
bx Z
#1620000
1#
#1680000
b1110 '
0#
#1683000
bx0000x00x0x00x0xxxxxxxx0x00 M
bx0000x00x0x00x0xxxxxxxx0x :
bx0000x00x0x00x0xxxxxxxx0x N
bx0000x00x0x00x0xxxxxxxx0x R
x)
bx >
bx F
bx G
bx "
bx A
bx \
bx +
bx Q
bx U
b10 ?
b10 E
b10 T
1.
07
0;
01
b1001 ,
b1001 ^
b11000010010000000110101101 9
b11000010010000000110101101 P
b10001011000 3
b10001011000 S
b1101 -
b1101 ]
b1101 2
b1101 _
b100100 4
b100100 O
b10001011000010010000000110101101 8
b10001011000010010000000110101101 Y
b100000 !
b100000 B
b100000 L
b100000 V
#1685000
b10 "
b10 A
b10 \
b1 <
b1 C
0)
b10 >
b10 F
b10 G
b1 /
b1 H
b1 [
b1 0
b1 D
b1 Z
#1740000
1#
#1800000
b1111 '
0#
#1803000
bx0000x00x0x00x0xxxx0xxx0000 M
bx0000x00x0x00x0xxxx0xxx00 :
bx0000x00x0x00x0xxxx0xxx00 N
bx0000x00x0x00x0xxxx0xxx00 R
b0 "
b0 A
b0 \
1)
b0 >
b0 F
b0 G
b110 ?
b110 E
b110 T
b11000010010000000110001100 9
b11000010010000000110001100 P
b11001011000 3
b11001011000 S
b1100 -
b1100 ]
b1100 2
b1100 _
b101000 4
b101000 O
b11001011000010010000000110001100 8
b11001011000010010000000110001100 Y
b100100 !
b100100 B
b100100 L
b100100 V
#1805000
b1101 "
b1101 A
b1101 \
0)
b1101 >
b1101 F
b1101 G
b1110 0
b1110 D
b1110 Z
#1860000
1#
#1920000
b10000 '
0#
#1923000
b1111111111111111111111111111111111111111111111111111111111110100 M
b1111111111111111111111111111111111111111111111111111111111111101 :
b1111111111111111111111111111111111111111111111111111111111111101 N
b1111111111111111111111111111111111111111111111111111111111111101 R
bx01 <
bx01 C
b0xx0x "
b0xx0x A
b0xx0x \
b11 +
b11 Q
b11 U
bx ?
bx E
bx T
0.
x=
x7
x;
1*
x1
b111x1 ,
b111x1 ^
b11111111111111111111111101 9
b11111111111111111111111101 P
b10111111 3
b10111111 S
b11111 -
b11111 ]
b11101 2
b11101 _
b11100 4
b11100 O
b10111111111111111111111111101 8
b10111111111111111111111111101 Y
b101000 !
b101000 B
b101000 L
b101000 V
#1925000
bx <
bx C
bx /
bx H
bx [
b0 0
b0 D
b0 Z
#1980000
1#
#2040000
b10001 '
0#
#2043000
b10000 M
b100 :
b100 N
b100 R
bx "
bx A
bx \
x)
bx >
bx F
bx G
b10 +
b10 Q
b10 U
b111 ?
b111 E
b111 T
0=
1;
0*
11
b1100 ,
b1100 ^
b10001100 9
b10001100 P
b10110100000 3
b10110100000 S
b100 -
b100 ]
b1100 2
b1100 _
b100000 4
b100000 O
b10110100000000000000000010001100 8
b10110100000000000000000010001100 Y
b11100 !
b11100 B
b11100 L
b11100 V
#2045000
b0xx0x "
b0xx0x A
b0xx0x \
0)
b1101 >
b1101 F
b1101 G
b1101 <
b1101 C
b1101 /
b1101 H
b1101 [
bx 0
bx D
bx Z
#2100000
1#
#2160000
b10010 '
0#
#2163000
bx0000x00x0x00x0xxxxxxxx0x00 M
bx0000x00x0x00x0xxxxxxxx0x :
bx0000x00x0x00x0xxxxxxxx0x N
bx0000x00x0x00x0xxxxxxxx0x R
x)
bx >
bx F
bx G
bx "
bx A
bx \
bx +
bx Q
bx U
b10 ?
b10 E
b10 T
1.
07
0;
01
b1001 ,
b1001 ^
b11000010010000000110101101 9
b11000010010000000110101101 P
b10001011000 3
b10001011000 S
b1101 -
b1101 ]
b1101 2
b1101 _
b100100 4
b100100 O
b10001011000010010000000110101101 8
b10001011000010010000000110101101 Y
b100000 !
b100000 B
b100000 L
b100000 V
#2165000
b11 "
b11 A
b11 \
b1 <
b1 C
0)
b11 >
b11 F
b11 G
b1 /
b1 H
b1 [
b10 0
b10 D
b10 Z
#2220000
1#
#2280000
b10011 '
0#
#2283000
bx0000x00x0x00x0xxxx0xxx0000 M
bx0000x00x0x00x0xxxx0xxx00 :
bx0000x00x0x00x0xxxx0xxx00 N
bx0000x00x0x00x0xxxx0xxx00 R
b1 "
b1 A
b1 \
b1 >
b1 F
b1 G
b110 ?
b110 E
b110 T
b11000010010000000110001100 9
b11000010010000000110001100 P
b11001011000 3
b11001011000 S
b1100 -
b1100 ]
b1100 2
b1100 _
b101000 4
b101000 O
b11001011000010010000000110001100 8
b11001011000010010000000110001100 Y
b100100 !
b100100 B
b100100 L
b100100 V
#2285000
b1100 "
b1100 A
b1100 \
b1100 >
b1100 F
b1100 G
b1101 0
b1101 D
b1101 Z
#2340000
1#
#2400000
b10100 '
0#
#2403000
b1111111111111111111111111111111111111111111111111111111111110100 M
b1111111111111111111111111111111111111111111111111111111111111101 :
b1111111111111111111111111111111111111111111111111111111111111101 N
b1111111111111111111111111111111111111111111111111111111111111101 R
bx01 <
bx01 C
b0xx00 "
b0xx00 A
b0xx00 \
b11 +
b11 Q
b11 U
bx ?
bx E
bx T
0.
x=
x7
x;
1*
x1
b111x1 ,
b111x1 ^
b11111111111111111111111101 9
b11111111111111111111111101 P
b10111111 3
b10111111 S
b11111 -
b11111 ]
b11101 2
b11101 _
b11100 4
b11100 O
b10111111111111111111111111101 8
b10111111111111111111111111101 Y
b101000 !
b101000 B
b101000 L
b101000 V
#2405000
bx <
bx C
bx /
bx H
bx [
b0 0
b0 D
b0 Z
#2460000
1#
#2520000
b10101 '
0#
#2523000
b10000 M
b100 :
b100 N
b100 R
bx "
bx A
bx \
x)
bx >
bx F
bx G
b10 +
b10 Q
b10 U
b111 ?
b111 E
b111 T
0=
1;
0*
11
b1100 ,
b1100 ^
b10001100 9
b10001100 P
b10110100000 3
b10110100000 S
b100 -
b100 ]
b1100 2
b1100 _
b100000 4
b100000 O
b10110100000000000000000010001100 8
b10110100000000000000000010001100 Y
b11100 !
b11100 B
b11100 L
b11100 V
#2525000
b0xx00 "
b0xx00 A
b0xx00 \
0)
b1100 >
b1100 F
b1100 G
b1100 <
b1100 C
b1100 /
b1100 H
b1100 [
bx 0
bx D
bx Z
#2580000
1#
#2640000
b10110 '
0#
#2643000
bx0000x00x0x00x0xxxxxxxx0x00 M
bx0000x00x0x00x0xxxxxxxx0x :
bx0000x00x0x00x0xxxxxxxx0x N
bx0000x00x0x00x0xxxxxxxx0x R
x)
bx >
bx F
bx G
bx "
bx A
bx \
bx +
bx Q
bx U
b10 ?
b10 E
b10 T
1.
07
0;
01
b1001 ,
b1001 ^
b11000010010000000110101101 9
b11000010010000000110101101 P
b10001011000 3
b10001011000 S
b1101 -
b1101 ]
b1101 2
b1101 _
b100100 4
b100100 O
b10001011000010010000000110101101 8
b10001011000010010000000110101101 Y
b100000 !
b100000 B
b100000 L
b100000 V
#2645000
b100 "
b100 A
b100 \
b1 <
b1 C
0)
b100 >
b100 F
b100 G
b1 /
b1 H
b1 [
b11 0
b11 D
b11 Z
#2700000
1#
#2760000
b10111 '
0#
#2763000
bx0000x00x0x00x0xxxx0xxx0000 M
bx0000x00x0x00x0xxxx0xxx00 :
bx0000x00x0x00x0xxxx0xxx00 N
bx0000x00x0x00x0xxxx0xxx00 R
b10 "
b10 A
b10 \
b10 >
b10 F
b10 G
b110 ?
b110 E
b110 T
b11000010010000000110001100 9
b11000010010000000110001100 P
b11001011000 3
b11001011000 S
b1100 -
b1100 ]
b1100 2
b1100 _
b101000 4
b101000 O
b11001011000010010000000110001100 8
b11001011000010010000000110001100 Y
b100100 !
b100100 B
b100100 L
b100100 V
#2765000
b1011 "
b1011 A
b1011 \
b1011 >
b1011 F
b1011 G
b1100 0
b1100 D
b1100 Z
#2820000
1#
#2880000
b11000 '
0#
#2883000
b1111111111111111111111111111111111111111111111111111111111110100 M
b1111111111111111111111111111111111111111111111111111111111111101 :
b1111111111111111111111111111111111111111111111111111111111111101 N
b1111111111111111111111111111111111111111111111111111111111111101 R
bx01 <
bx01 C
b0x0xx "
b0x0xx A
b0x0xx \
b11 +
b11 Q
b11 U
bx ?
bx E
bx T
0.
x=
x7
x;
1*
x1
b111x1 ,
b111x1 ^
b11111111111111111111111101 9
b11111111111111111111111101 P
b10111111 3
b10111111 S
b11111 -
b11111 ]
b11101 2
b11101 _
b11100 4
b11100 O
b10111111111111111111111111101 8
b10111111111111111111111111101 Y
b101000 !
b101000 B
b101000 L
b101000 V
#2885000
bx <
bx C
bx /
bx H
bx [
b0 0
b0 D
b0 Z
#2940000
1#
#3000000
b11001 '
0#
#3003000
b10000 M
b100 :
b100 N
b100 R
bx "
bx A
bx \
x)
bx >
bx F
bx G
b10 +
b10 Q
b10 U
b111 ?
b111 E
b111 T
0=
1;
0*
11
b1100 ,
b1100 ^
b10001100 9
b10001100 P
b10110100000 3
b10110100000 S
b100 -
b100 ]
b1100 2
b1100 _
b100000 4
b100000 O
b10110100000000000000000010001100 8
b10110100000000000000000010001100 Y
b11100 !
b11100 B
b11100 L
b11100 V
#3005000
b0x0xx "
b0x0xx A
b0x0xx \
0)
b1011 >
b1011 F
b1011 G
b1011 <
b1011 C
b1011 /
b1011 H
b1011 [
bx 0
bx D
bx Z
#3060000
1#
#3120000
b11010 '
0#
#3123000
bx0000x00x0x00x0xxxxxxxx0x00 M
bx0000x00x0x00x0xxxxxxxx0x :
bx0000x00x0x00x0xxxxxxxx0x N
bx0000x00x0x00x0xxxxxxxx0x R
x)
bx >
bx F
bx G
bx "
bx A
bx \
bx +
bx Q
bx U
b10 ?
b10 E
b10 T
1.
07
0;
01
b1001 ,
b1001 ^
b11000010010000000110101101 9
b11000010010000000110101101 P
b10001011000 3
b10001011000 S
b1101 -
b1101 ]
b1101 2
b1101 _
b100100 4
b100100 O
b10001011000010010000000110101101 8
b10001011000010010000000110101101 Y
b100000 !
b100000 B
b100000 L
b100000 V
#3125000
b101 "
b101 A
b101 \
b1 <
b1 C
0)
b101 >
b101 F
b101 G
b1 /
b1 H
b1 [
b100 0
b100 D
b100 Z
#3180000
1#
#3240000
b11011 '
0#
#3243000
bx0000x00x0x00x0xxxx0xxx0000 M
bx0000x00x0x00x0xxxx0xxx00 :
bx0000x00x0x00x0xxxx0xxx00 N
bx0000x00x0x00x0xxxx0xxx00 R
b11 "
b11 A
b11 \
b11 >
b11 F
b11 G
b110 ?
b110 E
b110 T
b11000010010000000110001100 9
b11000010010000000110001100 P
b11001011000 3
b11001011000 S
b1100 -
b1100 ]
b1100 2
b1100 _
b101000 4
b101000 O
b11001011000010010000000110001100 8
b11001011000010010000000110001100 Y
b100100 !
b100100 B
b100100 L
b100100 V
#3245000
b1010 "
b1010 A
b1010 \
b1010 >
b1010 F
b1010 G
b1011 0
b1011 D
b1011 Z
#3300000
1#
#3360000
b11100 '
0#
#3363000
b1111111111111111111111111111111111111111111111111111111111110100 M
b1111111111111111111111111111111111111111111111111111111111111101 :
b1111111111111111111111111111111111111111111111111111111111111101 N
b1111111111111111111111111111111111111111111111111111111111111101 R
bx01 <
bx01 C
b0x0x0 "
b0x0x0 A
b0x0x0 \
b11 +
b11 Q
b11 U
bx ?
bx E
bx T
0.
x=
x7
x;
1*
x1
b111x1 ,
b111x1 ^
b11111111111111111111111101 9
b11111111111111111111111101 P
b10111111 3
b10111111 S
b11111 -
b11111 ]
b11101 2
b11101 _
b11100 4
b11100 O
b10111111111111111111111111101 8
b10111111111111111111111111101 Y
b101000 !
b101000 B
b101000 L
b101000 V
#3365000
bx <
bx C
bx /
bx H
bx [
b0 0
b0 D
b0 Z
#3420000
1#
#3480000
b11101 '
0#
#3483000
b10000 M
b100 :
b100 N
b100 R
bx "
bx A
bx \
x)
bx >
bx F
bx G
b10 +
b10 Q
b10 U
b111 ?
b111 E
b111 T
0=
1;
0*
11
b1100 ,
b1100 ^
b10001100 9
b10001100 P
b10110100000 3
b10110100000 S
b100 -
b100 ]
b1100 2
b1100 _
b100000 4
b100000 O
b10110100000000000000000010001100 8
b10110100000000000000000010001100 Y
b11100 !
b11100 B
b11100 L
b11100 V
#3485000
b0x0x0 "
b0x0x0 A
b0x0x0 \
0)
b1010 >
b1010 F
b1010 G
b1010 <
b1010 C
b1010 /
b1010 H
b1010 [
bx 0
bx D
bx Z
#3540000
1#
#3600000
b11110 '
0#
#3603000
bx0000x00x0x00x0xxxxxxxx0x00 M
bx0000x00x0x00x0xxxxxxxx0x :
bx0000x00x0x00x0xxxxxxxx0x N
bx0000x00x0x00x0xxxxxxxx0x R
x)
bx >
bx F
bx G
bx "
bx A
bx \
bx +
bx Q
bx U
b10 ?
b10 E
b10 T
1.
07
0;
01
b1001 ,
b1001 ^
b11000010010000000110101101 9
b11000010010000000110101101 P
b10001011000 3
b10001011000 S
b1101 -
b1101 ]
b1101 2
b1101 _
b100100 4
b100100 O
b10001011000010010000000110101101 8
b10001011000010010000000110101101 Y
b100000 !
b100000 B
b100000 L
b100000 V
#3605000
b110 "
b110 A
b110 \
b1 <
b1 C
0)
b110 >
b110 F
b110 G
b1 /
b1 H
b1 [
b101 0
b101 D
b101 Z
#3660000
1#
#3720000
b11111 '
0#
#3723000
bx0000x00x0x00x0xxxx0xxx0000 M
bx0000x00x0x00x0xxxx0xxx00 :
bx0000x00x0x00x0xxxx0xxx00 N
bx0000x00x0x00x0xxxx0xxx00 R
b100 "
b100 A
b100 \
b100 >
b100 F
b100 G
b110 ?
b110 E
b110 T
b11000010010000000110001100 9
b11000010010000000110001100 P
b11001011000 3
b11001011000 S
b1100 -
b1100 ]
b1100 2
b1100 _
b101000 4
b101000 O
b11001011000010010000000110001100 8
b11001011000010010000000110001100 Y
b100100 !
b100100 B
b100100 L
b100100 V
#3725000
b1001 "
b1001 A
b1001 \
b1001 >
b1001 F
b1001 G
b1010 0
b1010 D
b1010 Z
#3780000
1#
#3840000
b100000 '
0#
#3843000
b1111111111111111111111111111111111111111111111111111111111110100 M
b1111111111111111111111111111111111111111111111111111111111111101 :
b1111111111111111111111111111111111111111111111111111111111111101 N
b1111111111111111111111111111111111111111111111111111111111111101 R
bx01 <
bx01 C
b0x00x "
b0x00x A
b0x00x \
b11 +
b11 Q
b11 U
bx ?
bx E
bx T
0.
x=
x7
x;
1*
x1
b111x1 ,
b111x1 ^
b11111111111111111111111101 9
b11111111111111111111111101 P
b10111111 3
b10111111 S
b11111 -
b11111 ]
b11101 2
b11101 _
b11100 4
b11100 O
b10111111111111111111111111101 8
b10111111111111111111111111101 Y
b101000 !
b101000 B
b101000 L
b101000 V
#3845000
bx <
bx C
bx /
bx H
bx [
b0 0
b0 D
b0 Z
#3900000
1#
#3960000
b100001 '
0#
#3963000
b10000 M
b100 :
b100 N
b100 R
bx "
bx A
bx \
x)
bx >
bx F
bx G
b10 +
b10 Q
b10 U
b111 ?
b111 E
b111 T
0=
1;
0*
11
b1100 ,
b1100 ^
b10001100 9
b10001100 P
b10110100000 3
b10110100000 S
b100 -
b100 ]
b1100 2
b1100 _
b100000 4
b100000 O
b10110100000000000000000010001100 8
b10110100000000000000000010001100 Y
b11100 !
b11100 B
b11100 L
b11100 V
#3965000
b0x00x "
b0x00x A
b0x00x \
0)
b1001 >
b1001 F
b1001 G
b1001 <
b1001 C
b1001 /
b1001 H
b1001 [
bx 0
bx D
bx Z
#4020000
1#
#4080000
b100010 '
0#
#4083000
bx0000x00x0x00x0xxxxxxxx0x00 M
bx0000x00x0x00x0xxxxxxxx0x :
bx0000x00x0x00x0xxxxxxxx0x N
bx0000x00x0x00x0xxxxxxxx0x R
x)
bx >
bx F
bx G
bx "
bx A
bx \
bx +
bx Q
bx U
b10 ?
b10 E
b10 T
1.
07
0;
01
b1001 ,
b1001 ^
b11000010010000000110101101 9
b11000010010000000110101101 P
b10001011000 3
b10001011000 S
b1101 -
b1101 ]
b1101 2
b1101 _
b100100 4
b100100 O
b10001011000010010000000110101101 8
b10001011000010010000000110101101 Y
b100000 !
b100000 B
b100000 L
b100000 V
#4085000
b111 "
b111 A
b111 \
b1 <
b1 C
0)
b111 >
b111 F
b111 G
b1 /
b1 H
b1 [
b110 0
b110 D
b110 Z
#4140000
1#
#4200000
b100011 '
0#
#4203000
bx0000x00x0x00x0xxxx0xxx0000 M
bx0000x00x0x00x0xxxx0xxx00 :
bx0000x00x0x00x0xxxx0xxx00 N
bx0000x00x0x00x0xxxx0xxx00 R
b101 "
b101 A
b101 \
b101 >
b101 F
b101 G
b110 ?
b110 E
b110 T
b11000010010000000110001100 9
b11000010010000000110001100 P
b11001011000 3
b11001011000 S
b1100 -
b1100 ]
b1100 2
b1100 _
b101000 4
b101000 O
b11001011000010010000000110001100 8
b11001011000010010000000110001100 Y
b100100 !
b100100 B
b100100 L
b100100 V
#4205000
b1000 "
b1000 A
b1000 \
b1000 >
b1000 F
b1000 G
b1001 0
b1001 D
b1001 Z
#4260000
1#
#4320000
b100100 '
0#
